<?xml version="1.0" encoding="UTF-8"?>
<svg width="53px" height="80px" viewBox="0 0 53 80" version="1.1" xmlns="http://www.w3.org/2000/svg" xmlns:xlink="http://www.w3.org/1999/xlink">
    <!-- Generator: Sketch 51.3 (57544) - http://www.bohemiancoding.com/sketch -->
    <title>placeholder</title>
    <desc>Created with Sketch.</desc>
    <defs></defs>
    <g id="Page-1" stroke="none" stroke-width="1" fill="none" fill-rule="evenodd">
        <g id="03.-Dich-Vu-Coworking-Daily" transform="translate(-1132.000000, -1003.000000)" fill-rule="nonzero">
            <g id="placeholder" transform="translate(1132.000000, 1003.000000)">
                <path d="M48.4056232,70.0354876 C48.4056232,64.7748288 38.5983887,60.5100714 26.5,60.5100714 C14.4016113,60.5100714 4.59437682,64.7748288 4.59437682,70.0354876 C4.59437682,75.2967711 14.4016113,79.5615285 26.5,79.5615285 C38.5983887,79.5615285 48.4056232,75.2967711 48.4056232,70.0354876 Z" id="Shape" fill="#FFC20E"></path>
                <path d="M52.1369136,21.6280551 C47.0407598,-6.99630137 5.95924021,-6.99630137 0.863086367,21.6280551 C0.408961409,24.1759135 0.172567554,26.7993703 0.172567554,29.4784326 C0.172567554,47.5920928 10.9956735,63.1647674 26.5,70.0354876 C42.0043265,63.1647674 52.8274324,47.5920928 52.8274324,29.4784326 C52.8274324,26.7993703 52.5910386,24.1759135 52.1369136,21.6280551 Z" id="Shape" fill="#1291D0"></path>
                <path d="M26.5,70.0354876 C10.9956735,63.1635177 0.172567554,47.5927176 0.172567554,29.4784326 C0.172567554,26.7993703 0.409583459,24.1759135 0.863708576,21.6274304 C3.38130301,7.4886289 14.6759526,0.334882791 26.0776015,0.166191833 C17.212832,0.387364422 5.56234745,7.53798666 3.60338878,21.6274304 C3.25066438,24.1759135 3.06528175,26.7993703 3.06528175,29.4784326 C3.06528175,47.5927176 14.4040997,63.1635177 26.5,70.0354876 Z" id="Shape" fill="#025B93"></path>
                <path d="M47.4276991,26.4276254 C47.4276991,38.0354377 38.0577933,47.4458939 26.5,47.4458939 C14.9422067,47.4458939 5.57230088,38.0354377 5.57230088,26.4276254 C5.57230088,14.8191883 14.9422067,5.40935665 26.5,5.40935665 C38.0577933,5.40935665 47.4276991,14.8191883 47.4276991,26.4276254 Z" id="Shape" fill="#1291D0"></path>
                <path d="M18.1011752,18.5149948 C18.1011752,17.422877 19.1014945,16.4619633 20.6237464,16.4619633 L29.6266197,16.4619633 C35.3678801,16.4619633 39.8910899,19.1703904 39.8910899,26.508447 L39.8910899,26.7271205 C39.8910899,34.0658019 35.1936951,36.8610737 29.1917795,36.8610737 L24.886301,36.8610737 L24.886301,46.2965212 C24.886301,47.6941571 23.189864,48.3932873 21.493427,48.3932873 C19.797612,48.3932873 18.1011752,47.6941571 18.1011752,46.2965212 L18.1011752,18.5149948 Z M24.886301,22.4023841 L24.886301,31.6191583 L29.1924016,31.6191583 C31.6278804,31.6191583 33.1065862,30.2215225 33.1065862,27.2513121 L33.1065862,26.7708552 C33.1065862,23.8006448 31.6278804,22.4023841 29.1924016,22.4023841 L24.886301,22.4023841 Z" id="Shape" fill="#FCFCFC"></path>
            </g>
        </g>
    </g>
</svg>