<?xml version="1.0" encoding="UTF-8"?>
<svg width="80px" height="80px" viewBox="0 0 80 80" version="1.1" xmlns="http://www.w3.org/2000/svg" xmlns:xlink="http://www.w3.org/1999/xlink">
    <!-- Generator: Sketch 51.3 (57544) - http://www.bohemiancoding.com/sketch -->
    <title>circular-clock</title>
    <desc>Created with Sketch.</desc>
    <defs></defs>
    <g id="Page-1" stroke="none" stroke-width="1" fill="none" fill-rule="evenodd">
        <g id="03.-Dich-Vu-Coworking-Daily" transform="translate(-241.000000, -1003.000000)" fill-rule="nonzero">
            <g id="circular-clock" transform="translate(241.000000, 1003.000000)">
                <circle id="Oval" fill="#FFC20E" cx="40" cy="40" r="40"></circle>
                <circle id="Oval" fill="#FFFFFF" cx="40" cy="40" r="32.4170313"></circle>
                <path d="M53.5389062,30.7507813 C54.7235937,29.5660938 54.7235937,27.6457812 53.5389062,26.46125 C52.3542188,25.2765625 50.4339062,25.2765625 49.249375,26.46125 L37.7485937,37.9620313 L42.038125,42.2515625 L53.5389062,30.7507813 Z" id="Shape" fill="#025B93"></path>
                <path d="M38.1607813,39.1582813 L21.0992188,56.2198438 C20.3589063,56.9601563 20.3589063,58.1604688 21.0992188,58.9009375 C21.4695313,59.2709375 21.9545313,59.45625 22.4396875,59.45625 C22.9248438,59.45625 23.4101563,59.2710937 23.7801563,58.9009375 L40.8417188,41.839375 L38.1607813,39.1582813 Z" id="Shape" fill="#1291D0"></path>
                <path d="M26.7290625,22.4396875 C25.544375,21.255 23.6240625,21.255 22.4395313,22.4396875 C21.2548438,23.624375 21.2548438,25.5446875 22.4395313,26.7292188 L37.961875,42.2515625 L42.2514063,37.9620313 L26.7290625,22.4396875 Z" id="Shape" fill="#025B93"></path>
                <path d="M40,44.739375 C37.3867188,44.739375 35.260625,42.6132812 35.260625,40 C35.260625,37.3867187 37.3867188,35.260625 40,35.260625 C42.6132812,35.260625 44.739375,37.3867188 44.739375,40 C44.739375,42.6132812 42.6132812,44.739375 40,44.739375 Z" id="Shape" fill="#025B93"></path>
                <g id="Group" transform="translate(13.125000, 13.125000)" fill="#1291D0">
                    <path d="M4.88453125,28.7707812 L2.0409375,28.7707812 C0.99390625,28.7707812 0.14515625,27.921875 0.14515625,26.875 C0.14515625,25.828125 0.99390625,24.9792187 2.0409375,24.9792187 L4.88453125,24.9792187 C5.9315625,24.9792187 6.7803125,25.828125 6.7803125,26.875 C6.7803125,27.921875 5.9315625,28.7707812 4.88453125,28.7707812 Z" id="Shape"></path>
                    <path d="M26.875,6.78015625 C25.8279688,6.78015625 24.9792188,5.93125 24.9792188,4.884375 L24.9792188,2.0409375 C24.9792188,0.9940625 25.8279688,0.14515625 26.875,0.14515625 C27.9220313,0.14515625 28.7707812,0.9940625 28.7707812,2.0409375 L28.7707812,4.88453125 C28.7707812,5.93125 27.9220313,6.78015625 26.875,6.78015625 Z" id="Shape"></path>
                    <path d="M51.7090625,28.7707812 L48.8654687,28.7707812 C47.8184375,28.7707812 46.9696875,27.921875 46.9696875,26.875 C46.9696875,25.828125 47.8184375,24.9792187 48.8654687,24.9792187 L51.7090625,24.9792187 C52.7560938,24.9792187 53.6048437,25.828125 53.6048437,26.875 C53.6048437,27.921875 52.7560938,28.7707812 51.7090625,28.7707812 Z" id="Shape"></path>
                    <path d="M26.875,53.6048438 C25.8279688,53.6048438 24.9792188,52.7559375 24.9792188,51.7090625 L24.9792188,48.8654688 C24.9792188,47.8185938 25.8279688,46.9696875 26.875,46.9696875 C27.9220313,46.9696875 28.7707812,47.8185938 28.7707812,48.8654688 L28.7707812,51.7090625 C28.7707812,52.7559375 27.9220313,53.6048438 26.875,53.6048438 Z" id="Shape"></path>
                </g>
            </g>
        </g>
    </g>
</svg>